[
   {
      "id":"cpu",
      "name":"CPU"
   },
   {
      "id":"chipset",
      "name":"Chipset"
   },
   {
      "id":"gpu",
      "name":"GPU"
   },
   {
      "id":"rom",
      "name":"Storage"
   },
   {
      "id":"ram",
      "name":"Memory"
   },
   {
      "id":"android",
      "name":"Android Version"
   },
   {
      "id":"battery",
      "name":"Battery"
   },
   {
      "id":"display",
      "name":"Display"
   },
   {
      "id":"rearCamera",
      "name":"Rear Camera"
   },
   {
      "id":"frontCamera",
      "name":"Front Camera"
   },
   {
      "id":"arch",
      "name":"Architecture"
   },
   {
      "id":"dimensions",
      "name":"Dimensions"
   },
   {
      "id":"weight",
      "name":"Weight"
   },
   {
      "id":"releaseDate",
      "name":"Release date"
   }
]
